semester_project/project_1/project_1.sim/sim_1/behav/xsim/simulate.log
Vivado Simulator 2020.1
Time resolution is 1 ps
A="bin=00111011100110001011010101000001, dec= 999863617"; B="bin=11010011011111000011000101011101, dec=3548131677"; C_circ="bin=00001111000101001110011010011110, dec= 253027998"; C_exp="bin=00001111000101001110011010011110, dec= 253027998"; status= TRUE; overflow=0;
A="bin=00011100011110110110101110001100, dec= 477850508"; B="bin=01110100101111100100001101001010, dec=1958626122"; C_circ="bin=10010001001110011010111011010110, dec=2436476630"; C_exp="bin=10010001001110011010111011010110, dec=2436476630"; status= TRUE; overflow=1;
A="bin=00010100101011011010110001000010, dec= 346926146"; B="bin=01100000010001100001010100101100, dec=1615205676"; C_circ="bin=01110100111100111100000101101110, dec=1962131822"; C_exp="bin=01110100111100111100000101101110, dec=1962131822"; status= TRUE; overflow=0;
A="bin=11000000110010011101101100111111, dec=3234454335"; B="bin=10010101100111010011101111111100, dec=2510109692"; C_circ="bin=01010110011001110001011100111011, dec=1449596731"; C_exp="bin=01010110011001110001011100111011, dec=1449596731"; status= TRUE; overflow=1;
A="bin=01110011011011101101011011101010, dec=1936643818"; B="bin=01010011000010000101001011101000, dec=1393054440"; C_circ="bin=11000110011101110010100111010010, dec=3329698258"; C_exp="bin=11000110011101110010100111010010, dec=3329698258"; status= TRUE; overflow=1;
A="bin=01110110101111010010111101111010, dec=1992109946"; B="bin=10110100000110010100100111100110, dec=3021556198"; C_circ="bin=00101010110101100111100101100000, dec= 718698848"; C_exp="bin=00101010110101100111100101100000, dec= 718698848"; status= TRUE; overflow=0;
A="bin=11100100100000000101111001000101, dec=3833617989"; B="bin=00010001100100101110010101000110, dec= 294839622"; C_circ="bin=11110110000100110100001110001011, dec=4128457611"; C_exp="bin=11110110000100110100001110001011, dec=4128457611"; status= TRUE; overflow=0;
A="bin=01000101111010000100000100010000, dec=1172848912"; B="bin=10000101011011000100100100111110, dec=2238466366"; C_circ="bin=11001011010101001000101001001110, dec=3411315278"; C_exp="bin=11001011010101001000101001001110, dec=3411315278"; status= TRUE; overflow=0;
A="bin=11110011100011111000001100110011, dec=4086268723"; B="bin=00100010111001011011101111101101, dec= 585481197"; C_circ="bin=00010110011101010011111100100000, dec= 376782624"; C_exp="bin=00010110011101010011111100100000, dec= 376782624"; status= TRUE; overflow=0;
A="bin=10100000100110000000111000010100, dec=2694319636"; B="bin=10001010001010111001111001111010, dec=2318114426"; C_circ="bin=00101010110000111010110010001110, dec= 717466766"; C_exp="bin=00101010110000111010110010001110, dec= 717466766"; status= TRUE; overflow=1;
A="bin=00011001100110011110111010001001, dec= 429518473"; B="bin=01000111100110010011100110010110, dec=1201224086"; C_circ="bin=01100001001100110010100000011111, dec=1630742559"; C_exp="bin=01100001001100110010100000011111, dec=1630742559"; status= TRUE; overflow=0;
A="bin=01101001101011111110101100100101, dec=1773136677"; B="bin=10111001111010101001100100001000, dec=3119159560"; C_circ="bin=00100011100110101000010000101101, dec= 597328941"; C_exp="bin=00100011100110101000010000101101, dec= 597328941"; status= TRUE; overflow=0;
A="bin=00011111111111011010011111101010, dec= 536717290"; B="bin=10011010110000010101101011100011, dec=2596362979"; C_circ="bin=10111010101111110000001011001101, dec=3133080269"; C_exp="bin=10111010101111110000001011001101, dec=3133080269"; status= TRUE; overflow=0;
A="bin=11101111000111000101111101011001, dec=4011614041"; B="bin=01000110111110010000010101001111, dec=1190724943"; C_circ="bin=00110110000101010110010010101000, dec= 907371688"; C_exp="bin=00110110000101010110010010101000, dec= 907371688"; status= TRUE; overflow=0;
A="bin=00011010101100000110100110001101, dec= 447768973"; B="bin=10110100101101011000011111101101, dec=3031795693"; C_circ="bin=11001111011001011111000101111010, dec=3479564666"; C_exp="bin=11001111011001011111000101111010, dec=3479564666"; status= TRUE; overflow=0;
A="bin=10100000000001101110000100101001, dec=2684805417"; B="bin=01001000010101011110011000100011, dec=1213589027"; C_circ="bin=11101000010111001100011101001100, dec=3898394444"; C_exp="bin=11101000010111001100011101001100, dec=3898394444"; status= TRUE; overflow=0;
A="bin=10001001101110110100011001101110, dec=2310751854"; B="bin=01010001010011100000110101101101, dec=1364069741"; C_circ="bin=11011011000010010101001111011011, dec=3674821595"; C_exp="bin=11011011000010010101001111011011, dec=3674821595"; status= TRUE; overflow=0;
A="bin=11100011100110001010011110000101, dec=3818432389"; B="bin=00111000000100010011001111000111, dec= 940651463"; C_circ="bin=00011011101010011101101101001100, dec= 464116556"; C_exp="bin=00011011101010011101101101001100, dec= 464116556"; status= TRUE; overflow=0;
A="bin=11000110100101101100000011011111, dec=3331768543"; B="bin=00101110101000100101110010100111, dec= 782392487"; C_circ="bin=11110101001110010001110110000110, dec=4114161030"; C_exp="bin=11110101001110010001110110000110, dec=4114161030"; status= TRUE; overflow=0;
A="bin=01000001011000111100100000101110, dec=1097058350"; B="bin=01100100000110000100001100101111, dec=1679311663"; C_circ="bin=10100101011111000000101101011101, dec=2776370013"; C_exp="bin=10100101011111000000101101011101, dec=2776370013"; status= TRUE; overflow=1;
A="bin=01101110111010111101000100000010, dec=1860948226"; B="bin=01011111010110011101001101101000, dec=1599722344"; C_circ="bin=11001110010001011010010001101010, dec=3460670570"; C_exp="bin=11001110010001011010010001101010, dec=3460670570"; status= TRUE; overflow=1;
A="bin=10110101101010010101111001100000, dec=3047775840"; B="bin=11000011111010001111011100011000, dec=3286824728"; C_circ="bin=01111001100100100101010101111000, dec=2039633272"; C_exp="bin=01111001100100100101010101111000, dec=2039633272"; status= TRUE; overflow=1;
A="bin=00000011011100101111001111110101, dec=  57865205"; B="bin=00011100110111101011100010001001, dec= 484358281"; C_circ="bin=00100000010100011010110001111110, dec= 542223486"; C_exp="bin=00100000010100011010110001111110, dec= 542223486"; status= TRUE; overflow=0;
A="bin=10101000110100110010110101000111, dec=2832411975"; B="bin=00100001010110000101010100000101, dec= 559437061"; C_circ="bin=11001010001010111000001001001100, dec=3391849036"; C_exp="bin=11001010001010111000001001001100, dec=3391849036"; status= TRUE; overflow=0;
A="bin=10011010001011011100000011000001, dec=2586689729"; B="bin=10111011001001001100111001000011, dec=3139751491"; C_circ="bin=01010101010100101000111100000100, dec=1431473924"; C_exp="bin=01010101010100101000111100000100, dec=1431473924"; status= TRUE; overflow=1;
A="bin=10010101100010001111101101011010, dec=2508782426"; B="bin=01010011100010011010100100101101, dec=1401530669"; C_circ="bin=11101001000100101010010010000111, dec=3910313095"; C_exp="bin=11101001000100101010010010000111, dec=3910313095"; status= TRUE; overflow=0;
A="bin=11101000011001010101000101000101, dec=3898954053"; B="bin=00010110100110101100011000001001, dec= 379241993"; C_circ="bin=11111111000000000001011101001110, dec=4278196046"; C_exp="bin=11111111000000000001011101001110, dec=4278196046"; status= TRUE; overflow=0;
A="bin=00010010110110011101111011111010, dec= 316268282"; B="bin=01000100100100111010010001000110, dec=1150526534"; C_circ="bin=01010111011011011000001101000000, dec=1466794816"; C_exp="bin=01010111011011011000001101000000, dec=1466794816"; status= TRUE; overflow=0;
A="bin=00101111101010001010110011110000, dec= 799583472"; B="bin=00110011100111011001010011101100, dec= 865965292"; C_circ="bin=01100011010001100100000111011100, dec=1665548764"; C_exp="bin=01100011010001100100000111011100, dec=1665548764"; status= TRUE; overflow=0;
A="bin=10110110111011011100101110011010, dec=3069037466"; B="bin=01100100010001000110001011010000, dec=1682203344"; C_circ="bin=00011011001100100010111001101010, dec= 456273514"; C_exp="bin=00011011001100100010111001101010, dec= 456273514"; status= TRUE; overflow=0;
A="bin=11101100000101010100100111010101, dec=3960818133"; B="bin=10100001111011100001111001101001, dec=2716737129"; C_circ="bin=10001110000000110110100000111110, dec=2382587966"; C_exp="bin=10001110000000110110100000111110, dec=2382587966"; status= TRUE; overflow=0;
A="bin=01000011110010111111010010110110, dec=1137439926"; B="bin=00100011001011110001101110011000, dec= 590289816"; C_circ="bin=01100110111110110001000001001110, dec=1727729742"; C_exp="bin=01100110111110110001000001001110, dec=1727729742"; status= TRUE; overflow=0;
A="bin=11100000100011111000101110001011, dec=3767503755"; B="bin=11011110111101011011100100111000, dec=3740645688"; C_circ="bin=10111111100001010100010011000011, dec=3213182147"; C_exp="bin=10111111100001010100010011000011, dec=3213182147"; status= TRUE; overflow=0;
A="bin=11000100010001100110111001000010, dec=3292950082"; B="bin=11010001010011101001010001101000, dec=3511587944"; C_circ="bin=10010101100101010000001010101010, dec=2509570730"; C_exp="bin=10010101100101010000001010101010, dec=2509570730"; status= TRUE; overflow=0;
A="bin=11110001110010101001001101010010, dec=4056585042"; B="bin=11011010111011101011001100011000, dec=3673076504"; C_circ="bin=11001100101110010100011001101010, dec=3434694250"; C_exp="bin=11001100101110010100011001101010, dec=3434694250"; status= TRUE; overflow=0;
A="bin=00011111001101010110000010111101, dec= 523591869"; B="bin=00111101011001011101001011001010, dec=1030083274"; C_circ="bin=01011100100110110011001110000111, dec=1553675143"; C_exp="bin=01011100100110110011001110000111, dec=1553675143"; status= TRUE; overflow=0;
A="bin=11010010100010010101111011101000, dec=3532218088"; B="bin=00010101111111010001100110010101, dec= 368908693"; C_circ="bin=11101000100001100111100001111101, dec=3901126781"; C_exp="bin=11101000100001100111100001111101, dec=3901126781"; status= TRUE; overflow=0;
A="bin=11100001000100100111110100100101, dec=3776085285"; B="bin=10100101000001000000111001010100, dec=2768506452"; C_circ="bin=10000110000101101000101101111001, dec=2249624441"; C_exp="bin=10000110000101101000101101111001, dec=2249624441"; status= TRUE; overflow=0;
A="bin=01111011110000101001000110000111, dec=2076348807"; B="bin=11001110100100010001110011111100, dec=3465616636"; C_circ="bin=01001010010100111010111010000011, dec=1246998147"; C_exp="bin=01001010010100111010111010000011, dec=1246998147"; status= TRUE; overflow=0;
A="bin=11111011101111100011011111101010, dec=4223547370"; B="bin=11100000011110010010100011100100, dec=3766036708"; C_circ="bin=11011100001101110110000011001110, dec=3694616782"; C_exp="bin=11011100001101110110000011001110, dec=3694616782"; status= TRUE; overflow=0;
A="bin=11000011101011001110100001010010, dec=3282888786"; B="bin=10010011010100111010110011110100, dec=2471734516"; C_circ="bin=01010111000000001001010101000110, dec=1459656006"; C_exp="bin=01010111000000001001010101000110, dec=1459656006"; status= TRUE; overflow=1;
A="bin=11001111000110101110000100101010, dec=3474645290"; B="bin=00010111111011000100011101100000, dec= 401360736"; C_circ="bin=11100111000001110010100010001010, dec=3876006026"; C_exp="bin=11100111000001110010100010001010, dec=3876006026"; status= TRUE; overflow=0;
A="bin=11000001000011101011100010111110, dec=3238967486"; B="bin=01100011001010001011101011000010, dec=1663613634"; C_circ="bin=00100100001101110111001110000000, dec= 607613824"; C_exp="bin=00100100001101110111001110000000, dec= 607613824"; status= TRUE; overflow=0;
A="bin=01010111100101110101100111110110, dec=1469536758"; B="bin=00011100000101000110010110101110, dec= 471098798"; C_circ="bin=01110011101010111011111110100100, dec=1940635556"; C_exp="bin=01110011101010111011111110100100, dec=1940635556"; status= TRUE; overflow=0;
A="bin=01111010101101101101100101011001, dec=2058803545"; B="bin=00110100110010101110011011100111, dec= 885712615"; C_circ="bin=10101111100000011100000001000000, dec=2944516160"; C_exp="bin=10101111100000011100000001000000, dec=2944516160"; status= TRUE; overflow=1;
A="bin=00000000101110010000100110111011, dec=  12126651"; B="bin=10110010001010001010111110010011, dec=2989010835"; C_circ="bin=10110010111000011011100101001110, dec=3001137486"; C_exp="bin=10110010111000011011100101001110, dec=3001137486"; status= TRUE; overflow=0;
A="bin=11100101110111111101001010000110, dec=3856650886"; B="bin=00101110110000101101111011010001, dec= 784522961"; C_circ="bin=00010100101000101011000101010111, dec= 346206551"; C_exp="bin=00010100101000101011000101010111, dec= 346206551"; status= TRUE; overflow=0;
end of test
$finish called at time : 500 ns : File "C:/Xilinx/SST/semester_project/project_1/project_1.srcs/sim_1/new/cond_sum_tb.v" Line 49
